{
  "project_info": {
    "project_number": "348656448786",
    "firebase_url": "https://hk-pos-app.firebaseio.com",
    "project_id": "hk-pos-app",
    "storage_bucket": "hk-pos-app.appspot.com"
  },
  "client": [
    {
      "client_info": {
        "mobilesdk_app_id": "1:348656448786:android:2f29cdaf47a2a533",
        "android_client_info": {
          "package_name": "com.hotelkeyapp.android.pos"
        }
      },
      "oauth_client": [
        {
          "client_id": "348656448786-g704t6dk1d3897eaqcks717qrsch68qd.apps.googleusercontent.com",
          "client_type": 3
        }
      ],
      "api_key": [
        {
          "current_key": "AIzaSyAwlnEVgLnBNjRJ4c2tVRJxu8hZzcWA1fE"
        }
      ],
      "services": {
        "analytics_service": {
          "status": 1
        },
        "appinvite_service": {
          "status": 1,
          "other_platform_oauth_client": []
        },
        "ads_service": {
          "status": 2
        }
      }
    },
    {
      "client_info": {
        "mobilesdk_app_id": "1:348656448786:android:1a3fcd6e9ddb4a40",
        "android_client_info": {
          "package_name": "com.hotelkeyapp.android.pos.enterprise"
        }
      },
      "oauth_client": [
        {
          "client_id": "348656448786-g704t6dk1d3897eaqcks717qrsch68qd.apps.googleusercontent.com",
          "client_type": 3
        }
      ],
      "api_key": [
        {
          "current_key": "AIzaSyAwlnEVgLnBNjRJ4c2tVRJxu8hZzcWA1fE"
        }
      ],
      "services": {
        "analytics_service": {
          "status": 1
        },
        "appinvite_service": {
          "status": 1,
          "other_platform_oauth_client": []
        },
        "ads_service": {
          "status": 2
        }
      }
    },
    {
      "client_info": {
        "mobilesdk_app_id": "1:348656448786:android:533fb15b37fbc80d",
        "android_client_info": {
          "package_name": "com.hotelkeyapp.android.pos.independent"
        }
      },
      "oauth_client": [
        {
          "client_id": "348656448786-g704t6dk1d3897eaqcks717qrsch68qd.apps.googleusercontent.com",
          "client_type": 3
        }
      ],
      "api_key": [
        {
          "current_key": "AIzaSyAwlnEVgLnBNjRJ4c2tVRJxu8hZzcWA1fE"
        }
      ],
      "services": {
        "analytics_service": {
          "status": 1
        },
        "appinvite_service": {
          "status": 1,
          "other_platform_oauth_client": []
        },
        "ads_service": {
          "status": 2
        }
      }
    }
  ],
  "configuration_version": "1"
}